Place,Name,Sex,BirthDate,Age,Equipment,Division,BodyweightKg,WeightClassKg,Squat1Kg,Squat2Kg,Squat3Kg,Squat4Kg,Best3SquatKg,Bench1Kg,Bench2Kg,Bench3Kg,Best3BenchKg,Deadlift1Kg,Deadlift2Kg,Deadlift3Kg,Deadlift4Kg,Best3DeadliftKg,TotalKg,Event
1,Carrie Munson,F,,,Raw,Amateur Masters 45-49,57.61,60,,,,,90.72,,,,56.7,,,,,102.06,249.48,SBD
1,Manuela Haylock,F,,,Raw,Amateur Juniors 20-23,60.06,67.5,,,,,102.06,,,,61.24,,,,,108.86,272.16,SBD
1,Rachel Verrill,F,,,Raw,Amateur Open,66.77,67.5,,,,,106.6,,,,63.5,,,,,122.47,292.57,SBD
1,Gigi Borden,F,,,Raw,Amateur Teen 14-15,63.05,67.5,,,,,68.04,,,,38.56,,,,,83.92,190.51,SBD
1,Zaynah Kalaoun,F,,,Wraps,Amateur Open,64.96,67.5,,,,,113.4,,,,49.9,,,,,108.86,272.16,SBD
1,Jennifer Marsh,F,,,Wraps,Amateur Submasters 33-39,66.23,67.5,,,,,115.67,,,,72.58,,,,,145.15,333.39,SBD
1,Beth McCready,F,,,Raw,Amateur Masters 45-49,74.84,75,,,,,92.99,,,,56.7,,,,,120.2,269.89,SBD
1,Liana Montiverdi,F,,,Raw,Amateur Open,73.39,75,,,,,92.99,,,,72.58,,,,,124.74,290.3,SBD
2,Angelica Greene,F,,,Wraps,Amateur Open,73.94,75,,,,,124.74,,,,63.5,,,,,142.88,331.13,SBD
1,Kate Hawk,F,,,Wraps,Amateur Open,69.22,75,,,,,131.54,,,,70.31,,,,,174.63,376.49,SBD
1,Rachel Borden,F,,,Wraps,Pro Submasters 33-39,74.48,75,,,,,142.88,,,,68.04,,,,,176.9,387.83,SBD
2,Shareen Almadani,F,,,Wraps,Amateur Open,77.93,82.5,,,,,117.94,,,,68.04,,,,,120.2,306.18,SBD
1,Krista Locurto,F,,,Wraps,Amateur Open,79.83,82.5,,,,,138.35,,,,88.45,,,,,181.44,408.24,SBD
1,Kathleen King,F,,,Raw,Amateur Masters 55-59,85.64,90,,,,,63.5,,,,45.36,,,,,72.58,181.44,SBD
1,Jessica McCool,F,,,Raw,Amateur Open,87.27,90,,,,,99.79,,,,58.97,,,,,149.69,308.45,SBD
1,Jessica McCool,F,,,Raw,Military Amateur Open,87.27,90,,,,,99.79,,,,58.97,,,,,149.69,308.45,SBD
1,Rachel Crafts,F,,,Wraps,Amateur Juniors 20-23,86.91,90,,,,,145.15,,,,68.04,,,,,156.49,369.68,SBD
1,Kelly Alves,F,,,Raw,Amateur Open,121.65,110+,,,,,163.29,,,,106.6,,,,,213.19,483.08,SBD
1,Eric B Brownstein,M,,,Unlimited,Pro Masters 55-59,63.32,67.5,,,,,276.69,,,,165.56,,,,,219.99,662.25,SBD
1,Lucas Marcotti,M,,,Raw,Amateur Teen 14-15,66.04,67.5,,,,,81.65,,,,54.43,,,,,108.86,244.94,SBD
1,Walter Rodas,M,,,Wraps,Amateur Open,66.32,67.5,,,,,197.31,,,,131.54,,,,,235.87,564.73,SBD
1,Logan Whitton,M,,,Wraps,Amateur Teen 16-17,64.23,67.5,,,,,136.08,,,,102.06,,,,,183.71,421.85,SBD
1,William Burdin,M,,,Raw,Amateur Teen 14-15,72.58,75,,,,,156.49,,,,104.33,,,,,170.1,430.92,SBD
2,Jacky Huang,M,,,Wraps,Amateur Juniors 20-23,72.67,75,,,,,167.83,,,,104.33,,,,,201.85,474.01,SBD
1,Elijah Thigpen-Frazier,M,,,Wraps,Amateur Juniors 20-23,74.48,75,,,229.07,238.14,229.07,,,,133.81,,,,,210.92,573.8,SBD
1,Brandon Boudreau,M,,,Wraps,Amateur Teen 16-17,69.85,75,,,,,195.05,,,,113.4,,,,,215.46,523.9,SBD
1,Matthew Theriault,M,,,Raw,Amateur Teen 18-19,79.29,82.5,,,,,142.88,,,,102.06,,,,,165.56,410.51,SBD
4,Vincent Nguyen,M,,,Wraps,Amateur Juniors 20-23,77.29,82.5,,,,,154.22,,,,92.99,,,,,174.63,421.85,SBD
3,Kam Downey,M,,,Wraps,Amateur Juniors 20-23,81.83,82.5,,,,,170.1,,,,127.01,,,,,167.83,464.94,SBD
2,Michael Le,M,,,Wraps,Amateur Juniors 20-23,79.92,82.5,,,,,183.71,,,,108.86,,,,,208.65,501.22,SBD
1,Jake Mainville,M,,,Wraps,Amateur Juniors 20-23,82.01,82.5,,,,,183.71,,,,120.2,,,,,233.6,537.51,SBD
4,Lysaththa In,M,,,Wraps,Amateur Open,77.57,82.5,,,,,156.49,,,,95.26,,,,,183.71,435.45,SBD
3,Michael Le,M,,,Wraps,Amateur Open,79.92,82.5,,,,,183.71,,,,108.86,,,,,208.65,501.22,SBD
2,Anthony Dempsey,M,,,Wraps,Amateur Open,79.65,82.5,,,,,206.39,,,,104.33,,,,,219.99,530.71,SBD
1,Dexter Berry,M,,,Wraps,Amateur Open,81.56,82.5,,,,,251.75,,,,97.52,,,,,260.82,610.09,SBD
1,Dexter Berry,M,,,Wraps,Amateur Submasters 33-39,81.56,82.5,,,,,251.75,,,,97.52,,,,,260.82,610.09,SBD
DQ,David Mackin,M,,,Wraps,Amateur Teen 14-15,82.1,82.5,,,,,,,,,,,,,,,,SBD
1,Mikey Viveiros,M,,,Wraps,Amateur Teen 16-17,80.2,82.5,,,,,190.51,,,,104.33,,,,,233.6,528.44,SBD
2,Arshis Marfatia,M,,,Wraps,Amateur Teen 18-19,80.29,82.5,,,,,149.69,,,,111.13,,,,,208.65,469.47,SBD
1,Harley Ellis,M,,,Wraps,Amateur Teen 18-19,79.29,82.5,,,,,172.37,,,,108.86,,,,,226.8,508.03,SBD
1,Gerard Pugsley,M,,,Wraps,Police Amateur Open,81.1,82.5,,,,,113.4,,,,86.18,,,,,149.69,349.27,SBD
1,Justin Pezick,M,,,Wraps,Pro Open,82.46,82.5,,,,,254.01,,,,190.51,,,,,267.62,712.15,SBD
2,Krishan Eskew,M,,,Raw,Amateur Juniors 20-23,88.63,90,,,,,165.56,,,,104.33,,,,,233.6,503.49,SBD
1,Manuel Preston De Miranda,M,,,Raw,Amateur Juniors 20-23,88.72,90,,,,,197.31,,,,140.62,,,,,226.8,564.73,SBD
1,Matt Gates,M,,,Raw,Amateur Open,86.55,90,,,,,226.8,,,,122.47,,,,,258.55,607.82,SBD
DQ,Joseph Fitzsimmons,M,,,Raw,Amateur Open,87.54,90,,,,,204.12,,,,,,,,,,,SBD
1,Angel Amaya,M,,,Raw,Amateur Teen 18-19,87,90,,,,,219.99,,,,117.94,,,,,226.8,564.73,SBD
1,Nick Ransom,M,,,Wraps,Amateur Juniors 20-23,88.36,90,,,,,192.78,,,,124.74,,,,,265.35,582.87,SBD
1,Hunter Agnew,M,,24,Wraps,Amateur Open,89,90,281.23,297.11,-310.71,,297.11,131.54,140.62,149.69,149.69,-281.23,290.3,308.45,-317.52,308.45,755.24,SBD
DQ,Sir Louie De Leon,M,,,Wraps,Amateur Open,86.18,90,,,,,219.99,,,,102.06,,,,,,,SBD
DQ,Wyatt Trevithick,M,,,Wraps,Pro Open,87.27,90,,,,,290.3,,,,,,,,,,,SBD
1,Alec Chen,M,,,Wraps,Amateur Juniors 20-23,90.54,100,,,,,256.28,,,,170.1,,,,,272.16,698.54,SBD
1,James Teseny,M,,,Wraps,Amateur Teen 18-19,118.84,125,,,,,260.82,,,,133.81,,,,,260.82,655.45,SBD
1,Charlie Marino,M,,,Wraps,Amateur Teen 18-19,109.23,110,,,,,337.93,,,,176.9,,,,,310.71,825.55,SBD
1,Dexter M Bidot,M,,,Multi-ply,Elite Open,78.38,82.5,,,,,,,,,231.33,,,,,283.5,514.83,BD
1,Connor Donisi,M,,,Single-ply,Amateur Juniors 20-23,92.26,100,,,,,,,,,102.06,,,,,197.31,299.37,BD
