Division,WeightClassKg,Place,Name,Team,BodyweightKg,Best3SquatKg,Best3BenchKg,Best3DeadliftKg,TotalKg,Equipment,Event,Sex,BirthDate
Boys,51.71,1,Austin Cuthberson,Van Alstyne,51.53,174.63,95.25,145.15,415.04,Single-ply,SBD,M,
Boys,51.71,2,Chasmon Davis,Everman,51.07,147.42,77.11,170.1,394.63,Single-ply,SBD,M,
Boys,51.71,3,Ty Kirkbride,Denison,50.26,136.08,70.31,129.27,335.66,Single-ply,SBD,M,
Boys,51.71,4,Payton Cole,Bells,45.36,108.86,63.5,106.59,278.96,Single-ply,SBD,M,
Boys,51.71,5,Adin McDonald,Wolfe City,47.63,77.11,45.36,92.99,215.46,Single-ply,SBD,M,
Boys,51.71,6,Caleb Bundy,Frisco Liberty,46.54,61.23,34.02,90.72,185.97,Single-ply,SBD,M,
Boys,51.71,7,Md Ullah,Frisco Liberty,48.53,58.97,34.02,92.99,185.97,Single-ply,SBD,M,
Boys,51.71,DQ,Matthew Riddles,Whitesboro,49.8,104.33,,,,Single-ply,SBD,M,
Boys,55.79,1,Carter McFadden,Anna,55.79,179.17,95.25,179.17,453.59,Single-ply,SBD,M,
Boys,55.79,2,Warren Ruiz-Demaree,Anna,54.7,151.95,86.18,161.03,399.16,Single-ply,SBD,M,
Boys,55.79,3,Schon Nichols,Farmersville,55.7,147.42,81.65,167.83,396.89,Single-ply,SBD,M,
Boys,55.79,4,Destin Warr,Callisburg,55.07,129.27,74.84,142.88,347,Single-ply,SBD,M,
Boys,55.79,5,Alex LeBrada,Whitesboro,54.07,127.01,74.84,136.08,337.93,Single-ply,SBD,M,
Boys,55.79,6,Xavier Bolin,Leonard,55.52,129.27,86.18,122.47,337.93,Single-ply,SBD,M,
Boys,55.79,7,Armando Carrillo,Bells,54.52,102.06,70.31,142.88,315.25,Single-ply,SBD,M,
Boys,55.79,8,Ralen Allen,Everman,54.79,124.74,61.23,124.74,310.71,Single-ply,SBD,M,
Boys,55.79,9,Micah Sharpe,Gainesville,55.25,113.4,68.04,113.4,294.84,Single-ply,SBD,M,
Boys,55.79,10,Jainam Manot,Frisco Liberty,54.79,92.99,68.04,124.74,285.76,Single-ply,SBD,M,
Boys,55.79,11,Jack Lifsey,Tom Bean,53.07,108.86,56.7,104.33,269.89,Single-ply,SBD,M,
Boys,55.79,12,Justin Bague,Tom Bean,55.07,102.06,54.43,102.06,258.55,Single-ply,SBD,M,
Boys,55.79,13,Jacob Fogleman,Whitewright,55.7,81.65,65.77,90.72,238.14,Single-ply,SBD,M,
Boys,55.79,DQ,Riley Fish,Pottsboro,55.52,113.4,,,,Single-ply,SBD,M,
Boys,59.87,1,Ever Barron,Everman,59.33,199.58,120.2,201.85,521.63,Single-ply,SBD,M,
Boys,59.87,2,Ignacio Salas,Whitesboro,59.06,181.44,106.59,179.17,467.2,Single-ply,SBD,M,
Boys,59.87,3,Dj Williams,Everman,55.97,170.1,90.72,158.76,419.57,Single-ply,SBD,M,
Boys,59.87,4,Asher Contreras,Whitesboro,57.97,154.22,74.84,183.7,412.77,Single-ply,SBD,M,
Boys,59.87,5,Jerry Cortez,Farmersville,59.78,151.95,102.06,151.95,405.97,Single-ply,SBD,M,
Boys,59.87,6,James Duvall,Prosper,59.78,147.42,90.72,167.83,405.97,Single-ply,SBD,M,
Boys,59.87,7,Carlos DeJesus,Prosper,58.33,136.08,83.91,163.29,383.29,Single-ply,SBD,M,
Boys,59.87,8,Dj Fogleman,Whitewright,59.51,142.88,90.72,129.27,362.87,Single-ply,SBD,M,
Boys,59.87,9,Jimmy Rollins,Van Alstyne,59.78,133.81,72.57,149.69,356.07,Single-ply,SBD,M,
Boys,59.87,10,Cade Dudley,Celina,58.51,133.81,95.25,122.47,351.53,Single-ply,SBD,M,
Boys,59.87,11,Davis McAlister,Aubrey,57.42,136.08,74.84,136.08,347,Single-ply,SBD,M,
Boys,59.87,12,Keane Ortega,Sadler S & S Cons,58.69,127.01,72.57,145.15,344.73,Single-ply,SBD,M,
Boys,59.87,13,Kai Bagley,Aubrey,57.7,127.01,72.57,124.74,324.32,Single-ply,SBD,M,
Boys,59.87,14,Brandon Halliburton,Anna,58.79,124.74,61.23,136.08,322.05,Single-ply,SBD,M,
Boys,59.87,15,Tanush Prakash,Frisco Liberty,59.69,97.52,63.5,124.74,285.76,Single-ply,SBD,M,
Boys,59.87,16,Jason Mullins,Detroit,57.24,102.06,70.31,104.33,276.69,Single-ply,SBD,M,
Boys,59.87,DQ,Conner Jacobs,Whitesboro,56.61,124.74,,,,Single-ply,SBD,M,
Boys,67.13,1,Aaron Ambriz,Everman,65.86,183.7,115.67,192.78,492.15,Single-ply,SBD,M,
Boys,67.13,2,Jackson Haines,Prosper,66.77,183.7,117.93,172.37,474,Single-ply,SBD,M,
Boys,67.13,3,Josh Barlagnq,Leonard,65.23,181.44,111.13,161.03,453.59,Single-ply,SBD,M,
Boys,67.13,4,Anthony Henry,Gainesville,63.14,163.29,83.91,165.56,412.77,Single-ply,SBD,M,
Boys,67.13,5,Tyler Newby,Leonard,67.13,154.22,99.79,154.22,408.23,Single-ply,SBD,M,
Boys,67.13,6,Nick Rhineheart,Bonham,66.59,140.61,108.86,154.22,403.7,Single-ply,SBD,M,
Boys,67.13,7,Kaden Pyle,Bells,64.68,142.88,83.91,161.03,387.82,Single-ply,SBD,M,
Boys,67.13,8,Greg Turner,Leonard,66.59,154.22,86.18,145.15,385.55,Single-ply,SBD,M,
Boys,67.13,9,Brennan Bates,Sherman,66.22,156.49,72.57,151.95,381.02,Single-ply,SBD,M,
Boys,67.13,10,Tanner Meeks,Celeste,64.95,142.88,81.65,147.42,371.95,Single-ply,SBD,M,
Boys,67.13,11,Sam Wyatt,Van Alstyne,63.68,142.88,79.38,147.42,369.68,Single-ply,SBD,M,
Boys,67.13,12,Alex Sustaita,Gainesville,64.23,142.88,70.31,154.22,367.41,Single-ply,SBD,M,
Boys,67.13,13,Justin Lewis,Lucas Lovejoy,65.32,147.42,77.11,138.35,362.87,Single-ply,SBD,M,
Boys,67.13,14,Grady Waldrip,Bells,66.41,129.27,74.84,151.95,356.07,Single-ply,SBD,M,
Boys,67.13,15,Riley Ziminskas,Celeste,61.6,131.54,74.84,147.42,353.8,Single-ply,SBD,M,
Boys,67.13,16,Wes Huber,Aubrey,66.59,142.88,74.84,136.08,353.8,Single-ply,SBD,M,
Boys,67.13,17,Gharron Sheffield,Lucas Lovejoy,66.32,136.08,77.11,131.54,344.73,Single-ply,SBD,M,
Boys,67.13,18,Foster Cataloie,Van Alstyne,66.59,131.54,70.31,136.08,337.93,Single-ply,SBD,M,
Boys,67.13,19,Blake Smith,Sadler S & S Cons,60.87,113.4,72.57,145.15,331.12,Single-ply,SBD,M,
Boys,67.13,20,Ben Cagle,Wolfe City,61.78,136.08,83.91,95.25,315.25,Single-ply,SBD,M,
Boys,67.13,21,Dylan Smith #12,Princeton,61.14,102.06,61.23,142.88,306.17,Single-ply,SBD,M,
Boys,67.13,22,Jackson Wahl,Celina,64.86,113.4,70.31,120.2,303.91,Single-ply,SBD,M,
Boys,67.13,23,Daniel Taylor,Collinsville,60.51,104.33,63.5,131.54,299.37,Single-ply,SBD,M,
Boys,67.13,24,Chris Harmon,Tom Bean,66.77,90.72,83.91,113.4,288.03,Single-ply,SBD,M,
Boys,67.13,25,Josh Colvert,Wolfe City,64.5,111.13,70.31,102.06,283.5,Single-ply,SBD,M,
Boys,67.13,26,Dustin Hickman,Tom Bean,63.05,97.52,43.09,124.74,265.35,Single-ply,SBD,M,
Boys,67.13,DQ,Austin Gonzales,Lucas Lovejoy,63.14,122.47,,,,Single-ply,SBD,M,
Boys,67.13,DQ,Cort Ewing,Detroit,65.59,142.88,,,,Single-ply,SBD,M,
Boys,67.13,DQ,Lucas Harmon,Aubrey,66.5,149.69,,,,Single-ply,SBD,M,
Boys,67.13,DQ,Jacob Jones,Cooper,61.14,,,,,Single-ply,SBD,M,
Boys,67.13,DQ,Clayton Moore,Callisburg,63.32,,,,,Single-ply,SBD,M,
Boys,74.84,1,Colby Stinedurf,Farmersville,68.13,217.72,145.15,213.19,576.06,Single-ply,SBD,M,
Boys,74.84,2,Nathan Smith #12,Tioga,73.48,197.31,147.42,183.7,528.44,Single-ply,SBD,M,
Boys,74.84,3,Victor Martinez,Anna,73.66,199.58,111.13,192.78,503.49,Single-ply,SBD,M,
Boys,74.84,4,Kevin Jarvis,Everman,73.21,204.12,104.33,188.24,496.68,Single-ply,SBD,M,
Boys,74.84,5,Womack Xander,Princeton,73.84,174.63,154.22,158.76,487.61,Single-ply,SBD,M,
Boys,74.84,6,Gage Moore,Sadler S & S Cons,72.03,181.44,108.86,195.04,485.34,Single-ply,SBD,M,
Boys,74.84,7,Grayson Blanchard,Celina,71.58,185.97,113.4,183.7,483.08,Single-ply,SBD,M,
Boys,74.84,8,Tyler Smith #1,Lucas Lovejoy,72.44,190.51,108.86,176.9,476.27,Single-ply,SBD,M,
Boys,74.84,9,Ben Anderson,Frisco Liberty,73.39,158.76,124.74,188.24,471.74,Single-ply,SBD,M,
Boys,74.84,10,Eric Clark,Anna,73.21,163.29,104.33,201.85,469.47,Single-ply,SBD,M,
Boys,74.84,11,Keatyn Eitelman,Pottsboro,70.94,183.7,102.06,181.44,467.2,Single-ply,SBD,M,
Boys,74.84,12,Army Elllison,Celina,73.21,176.9,120.2,165.56,462.66,Single-ply,SBD,M,
Boys,74.84,13,Cameron Washington,Sherman,72.3,176.9,97.52,185.97,460.4,Single-ply,SBD,M,
Boys,74.84,14,Maverick Bowen,Gainesville,72.03,183.7,102.06,161.03,446.79,Single-ply,SBD,M,
Boys,74.84,15,Brett Long,Van Alstyne,70.85,174.63,92.99,170.1,437.72,Single-ply,SBD,M,
Boys,74.84,16,Jacob Tull,Farmersville,70.22,170.1,90.72,174.63,435.45,Single-ply,SBD,M,
Boys,74.84,17,Jaerson Taylor,Celina,70.76,161.03,97.52,174.63,433.18,Single-ply,SBD,M,
Boys,74.84,18,Jake Cook,Krum,72.39,158.76,104.33,165.56,428.64,Single-ply,SBD,M,
Boys,74.84,19,Garyion Hart,Denison,68.13,181.44,81.65,163.29,426.38,Single-ply,SBD,M,
Boys,74.84,20,Joey Baggs,Sadler S & S Cons,69.94,156.49,97.52,172.37,426.38,Single-ply,SBD,M,
Boys,74.84,21,Taylor Kern,Krum,73.57,156.49,113.4,149.69,419.57,Single-ply,SBD,M,
Boys,74.84,22,Canyon Payne,Bells,73.48,151.95,81.65,174.63,408.23,Single-ply,SBD,M,
Boys,74.84,23,Jacob Polladino,Aubrey,74.3,158.76,79.38,154.22,392.36,Single-ply,SBD,M,
Boys,74.84,24,Cagen Clark,Krum,73.12,142.88,95.25,145.15,383.29,Single-ply,SBD,M,
Boys,74.84,25,Broc Armstrong,Blue Ridge,72.3,142.88,88.45,145.15,376.48,Single-ply,SBD,M,
Boys,74.84,26,Payton Jones #2,Krum,73.03,142.88,83.91,149.69,376.48,Single-ply,SBD,M,
Boys,74.84,27,Josh Pittner,Sadler S & S Cons,74.84,149.69,102.06,124.74,376.48,Single-ply,SBD,M,
Boys,74.84,28,Shelby Price,Callisburg,73.03,127.01,86.18,151.95,365.14,Single-ply,SBD,M,
Boys,74.84,29,David Robert,Krum,74.66,104.33,90.72,145.15,340.19,Single-ply,SBD,M,
Boys,74.84,30,Preston Jones,Lucas Lovejoy,70.76,124.74,68.04,131.54,324.32,Single-ply,SBD,M,
Boys,74.84,31,Caoe Whitney,Van Alstyne,74.21,117.93,72.57,127.01,317.51,Single-ply,SBD,M,
Boys,74.84,32,Sean Portman,Whitesboro,69.67,113.4,74.84,122.47,310.71,Single-ply,SBD,M,
Boys,74.84,33,Graham Akoh,Princeton,69.94,111.13,63.5,133.81,308.44,Single-ply,SBD,M,
Boys,74.84,34,Hunter Sloan,Callisburg,73.3,104.33,63.5,140.61,308.44,Single-ply,SBD,M,
Boys,74.84,35,Gabe Gibbson,Bells,69.4,108.86,65.77,129.27,303.91,Single-ply,SBD,M,
Boys,74.84,36,Liam Duggan,Aubrey,73.39,117.93,68.04,117.93,303.91,Single-ply,SBD,M,
Boys,74.84,37,Daren Riddle,Whitesboro,72.39,113.4,70.31,117.93,301.64,Single-ply,SBD,M,
Boys,74.84,38,Aiden Jones,Tom Bean,68.04,95.25,61.23,102.06,258.55,Single-ply,SBD,M,
Boys,74.84,DQ,Charler Burles,Gainesville,74.57,136.08,,,,Single-ply,SBD,M,
Boys,74.84,DQ,Chris Clark,Frisco Liberty,67.31,124.74,74.84,,,Single-ply,SBD,M,
Boys,74.84,DQ,Konder Morris,Bells,72.21,147.42,,,,Single-ply,SBD,M,
Boys,74.84,DQ,Mason Wallace,Lucas Lovejoy,68.49,127.01,83.91,,,Single-ply,SBD,M,
Boys,74.84,DQ,Kameron Metzler,Lindsay,74.12,124.74,49.9,,,Single-ply,SBD,M,
Boys,74.84,DQ,Harrison Dempsey,Gainesville,72.03,176.9,,,,Single-ply,SBD,M,
Boys,82.1,1,Ethan Cortez,Farmersville,80.56,224.53,129.27,229.06,582.87,Single-ply,SBD,M,
Boys,82.1,2,Diego Cortez,Everman,81.56,229.06,120.2,226.8,576.06,Single-ply,SBD,M,
Boys,82.1,3,Seth Baucum,Callisburg,82.1,217.72,117.93,229.06,564.72,Single-ply,SBD,M,
Boys,82.1,4,Jose Martinez #6,Celina,75.75,204.12,129.27,210.92,544.31,Single-ply,SBD,M,
Boys,82.1,5,Blake Slaughter,Lucas Lovejoy,80.65,215.46,136.08,185.97,537.51,Single-ply,SBD,M,
Boys,82.1,6,Rhett Attaway,Farmersville,78.74,201.85,104.33,226.8,532.97,Single-ply,SBD,M,
Boys,82.1,7,Robert Singleton,Gainesville,79.11,195.04,104.33,226.8,526.17,Single-ply,SBD,M,
Boys,82.1,8,Kam Cottle,Farmersville,75.48,199.58,97.52,208.65,505.76,Single-ply,SBD,M,
Boys,82.1,9,Jayce Morgan,Gainesville,78.83,204.12,115.67,183.7,503.49,Single-ply,SBD,M,
Boys,82.1,10,Marcellus Toombs,Prosper,80.65,188.24,111.13,192.78,492.15,Single-ply,SBD,M,
Boys,82.1,11,Marco DeTomas,Prosper,80.74,206.38,102.06,183.7,492.15,Single-ply,SBD,M,
Boys,82.1,12,Jacob Miller,Krum,78.93,183.7,111.13,195.04,489.88,Single-ply,SBD,M,
Boys,82.1,13,John Wheeler,Leonard,80.83,167.83,120.2,170.1,458.13,Single-ply,SBD,M,
Boys,82.1,14,Keith Qualls,Lucas Lovejoy,79.74,185.97,79.38,188.24,453.59,Single-ply,SBD,M,
Boys,82.1,15,Diego Juardo,Frisco Liberty,81.47,163.29,115.67,174.63,453.59,Single-ply,SBD,M,
Boys,82.1,16,Dalton Doyle,Leonard,80.56,163.29,108.86,170.1,442.25,Single-ply,SBD,M,
Boys,82.1,17,Cole Moore,Bells,81.1,170.1,83.91,183.7,437.72,Single-ply,SBD,M,
Boys,82.1,18,Artrai Miles-Edmond,Princeton,77.2,165.56,88.45,172.37,426.38,Single-ply,SBD,M,
Boys,82.1,19,Eber Padilla,Farmersville,79.65,165.56,92.99,165.56,424.11,Single-ply,SBD,M,
Boys,82.1,20,Jonathon Bone,Frisco Liberty,81.56,158.76,95.25,167.83,421.84,Single-ply,SBD,M,
Boys,82.1,21,Zach Colwell,Sadler S & S Cons,75.84,172.37,86.18,145.15,403.7,Single-ply,SBD,M,
Boys,82.1,22,Cogan Grabowski,Farmersville,79.74,151.95,97.52,151.95,401.43,Single-ply,SBD,M,
Boys,82.1,23,Waylon Vidler,Celeste,75.39,142.88,97.52,142.88,383.29,Single-ply,SBD,M,
Boys,82.1,24,Kyle Morris,Whitewright,76.66,127.01,95.25,142.88,365.14,Single-ply,SBD,M,
Boys,82.1,25,Andrew Burdetto,Pottsboro,81.92,145.15,83.91,131.54,360.61,Single-ply,SBD,M,
Boys,82.1,26,Hagan York,Whitewright,75.3,136.08,83.91,136.08,356.07,Single-ply,SBD,M,
Boys,82.1,27,Tyler Fogle,Collinsville,78.93,142.88,86.18,127.01,356.07,Single-ply,SBD,M,
Boys,82.1,28,Angel Jimenez #1,Blue Ridge,80.15,131.54,70.31,129.27,331.12,Single-ply,SBD,M,
Boys,82.1,29,Jesse Olivarez,Dallas Life Oak Cliff,78.2,102.06,65.77,133.81,301.64,Single-ply,SBD,M,
Boys,82.1,30,Rowdy Jeffreys,Callisburg,75.21,90.72,49.9,104.33,244.94,Single-ply,SBD,M,
Boys,82.1,31,Hunter Alexander,Van Alstyne,80.1,77.11,52.16,83.91,213.19,Single-ply,SBD,M,
Boys,82.1,DQ,Bradley Braybn,Princeton,81.47,170.1,,,,Single-ply,SBD,M,
Boys,82.1,DQ,Kenneth Griggs,Detroit,80.1,142.88,,,,Single-ply,SBD,M,
Boys,82.1,DQ,Jake Taylor,Van Alstyne,81.37,199.58,117.93,,,Single-ply,SBD,M,
Boys,82.1,DQ,Micah Justice,Sherman,76.57,210.92,136.08,210.92,,Single-ply,SBD,M,
Boys,89.81,1,Luke Porter,Bonham,89.22,244.94,154.22,217.72,616.89,Single-ply,SBD,M,
Boys,89.81,2,Shane Davis,Whitewright,89.77,215.46,149.69,192.78,557.92,Single-ply,SBD,M,
Boys,89.81,3,Garrett Kemp,Whitesboro,86.91,204.12,120.2,213.19,537.51,Single-ply,SBD,M,
Boys,89.81,4,Caden Joyce,Anna,88.09,204.12,124.74,206.38,535.24,Single-ply,SBD,M,
Boys,89.81,5,Martin Grijalva,Sherman,84.69,192.78,120.2,210.92,523.9,Single-ply,SBD,M,
Boys,89.81,6,Daniel Ajayi,Frisco Liberty,86.91,188.24,106.59,219.99,514.83,Single-ply,SBD,M,
Boys,89.81,7,Alex Swartz,Krum,87.77,217.72,127.01,170.1,514.83,Single-ply,SBD,M,
Boys,89.81,8,Jason Williams #4,Dallas Life Oak Cliff,87.54,176.9,115.67,206.38,498.95,Single-ply,SBD,M,
Boys,89.81,9,Trey Cook,Krum,88.41,188.24,120.2,190.51,498.95,Single-ply,SBD,M,
Boys,89.81,10,Luis Hernandez,Collinsville,88.99,192.78,113.4,192.78,498.95,Single-ply,SBD,M,
Boys,89.81,11,Kaleb Graham,Tom Bean,84.73,181.44,102.06,183.7,467.2,Single-ply,SBD,M,
Boys,89.81,12,Brady Henslee,Celeste,85.41,185.97,108.86,165.56,460.4,Single-ply,SBD,M,
Boys,89.81,13,Raul Hernandez,Howe,88.99,167.83,117.93,165.56,451.32,Single-ply,SBD,M,
Boys,89.81,14,William Worley,Krum,89.72,154.22,120.2,165.56,439.98,Single-ply,SBD,M,
Boys,89.81,15,Colten Dunn,Celina,87.91,172.37,92.99,167.83,433.18,Single-ply,SBD,M,
Boys,89.81,16,Carl Besario,Bells,86.64,170.1,83.91,170.1,424.11,Single-ply,SBD,M,
Boys,89.81,17,Jake Reynolds,Sadler S & S Cons,82.37,172.37,77.11,170.1,419.57,Single-ply,SBD,M,
Boys,89.81,18,Dalton Stanley,Tioga,88.18,174.63,124.74,120.2,419.57,Single-ply,SBD,M,
Boys,89.81,19,Logan Yeck,Krum,85.14,136.08,95.25,181.44,412.77,Single-ply,SBD,M,
Boys,89.81,20,Michael Terrill,Van Alstyne,88.22,163.29,79.38,158.76,401.43,Single-ply,SBD,M,
Boys,89.81,21,Kasey Sanders #1,Whitewright,88.99,154.22,99.79,145.15,399.16,Single-ply,SBD,M,
Boys,89.81,22,Brady Knabe,Collinsville,83.1,158.76,92.99,145.15,396.89,Single-ply,SBD,M,
Boys,89.81,23,Ryan Rodriguez,Blue Ridge,86.09,156.49,92.99,147.42,396.89,Single-ply,SBD,M,
Boys,89.81,24,Leo Martinez,Tom Bean,86.82,142.88,81.65,142.88,367.41,Single-ply,SBD,M,
Boys,89.81,25,Marshall Knowlton,Whitesboro,88.22,151.95,97.52,111.13,360.61,Single-ply,SBD,M,
Boys,89.81,26,Cooper Carroll,Van Alstyne,88.59,127.01,90.72,142.88,360.61,Single-ply,SBD,M,
Boys,89.81,27,Josh Powell,Blue Ridge,85.32,136.08,83.91,129.27,349.27,Single-ply,SBD,M,
Boys,89.81,28,Isaah Ryan,Bonham,83.73,136.08,61.23,131.54,328.85,Single-ply,SBD,M,
Boys,89.81,29,Noah Gardnes,Lucas Lovejoy,86.55,113.4,81.65,122.47,317.51,Single-ply,SBD,M,
Boys,89.81,30,Andrew Peippo,Pottsboro,86.41,108.86,72.57,127.01,308.44,Single-ply,SBD,M,
Boys,89.81,DQ,Devin Jackson,Sadler S & S Cons,82.64,163.29,104.33,,,Single-ply,SBD,M,
Boys,89.81,DQ,Aidan Straub,Bonham,87.91,208.65,,,,Single-ply,SBD,M,
Boys,89.81,DQ,Jaden Hedges,Whitesboro,85.46,138.35,99.79,,,Single-ply,SBD,M,
Boys,89.81,DQ,Kyron Smith,Gainesville,88.77,158.76,,,,Single-ply,SBD,M,
Boys,99.79,1,Martavious Hill,Aubrey,89.99,219.99,113.4,204.12,537.51,Single-ply,SBD,M,
Boys,99.79,2,Edgar Aguilar,Sadler S & S Cons,90.67,199.58,106.59,210.92,517.1,Single-ply,SBD,M,
Boys,99.79,3,Ben Branam,Bells,96.93,192.78,129.27,179.17,501.22,Single-ply,SBD,M,
Boys,99.79,4,Robert Teta,Frisco Liberty,99.06,188.24,106.59,206.38,501.22,Single-ply,SBD,M,
Boys,99.79,5,Austin Sotelo,Tioga,97.3,204.12,102.06,183.7,489.88,Single-ply,SBD,M,
Boys,99.79,6,Jose Perez #16,Anna,95.89,170.1,124.74,179.17,474,Single-ply,SBD,M,
Boys,99.79,7,Jacob Kennedy,Bonham,96.3,170.1,108.86,188.24,467.2,Single-ply,SBD,M,
Boys,99.79,8,Jude Walters,Denison,99.65,167.83,113.4,172.37,453.59,Single-ply,SBD,M,
Boys,99.79,9,Aaron Cajilema,Aubrey,98.7,183.7,97.52,170.1,451.32,Single-ply,SBD,M,
Boys,99.79,10,Coy Warmoth,Krum,96.71,167.83,104.33,172.37,444.52,Single-ply,SBD,M,
Boys,99.79,11,Miguel Artega,Bonham,99.61,167.83,97.52,170.1,435.45,Single-ply,SBD,M,
Boys,99.79,12,Jeremy Chairez,Farmersville,99.56,156.49,102.06,172.37,430.91,Single-ply,SBD,M,
Boys,99.79,13,Esteban Hernandez,Collinsville,95.12,151.95,97.52,176.9,426.38,Single-ply,SBD,M,
Boys,99.79,14,Jeremiah Velten,Whitesboro,91.22,151.95,86.18,183.7,421.84,Single-ply,SBD,M,
Boys,99.79,15,Jax Gage,Whitewright,91.76,158.76,102.06,158.76,419.57,Single-ply,SBD,M,
Boys,99.79,16,Jacob Weir,Callisburg,92.9,158.76,90.72,170.1,419.57,Single-ply,SBD,M,
Boys,99.79,17,Jacob Field,Anna,97.66,151.95,92.99,158.76,403.7,Single-ply,SBD,M,
Boys,99.79,18,Jake Alonzo,Pottsboro,92.44,136.08,102.06,158.76,396.89,Single-ply,SBD,M,
Boys,99.79,19,Conner Markham,Whitesboro,97.75,140.61,81.65,167.83,390.09,Single-ply,SBD,M,
Boys,99.79,20,Gavin Garera,Aubrey,98.52,151.95,88.45,147.42,387.82,Single-ply,SBD,M,
Boys,99.79,21,Levi Copeland,Van Alstyne,97.2,147.42,88.45,147.42,383.29,Single-ply,SBD,M,
Boys,99.79,22,Braden Harris,Leonard,98.88,136.08,95.25,145.15,376.48,Single-ply,SBD,M,
Boys,99.79,23,Andy Medina,Wolfe City,92.53,129.27,102.06,136.08,367.41,Single-ply,SBD,M,
Boys,99.79,24,Nick Loya,Van Alstyne,95.53,147.42,83.91,136.08,367.41,Single-ply,SBD,M,
Boys,99.79,25,Zane Sun,Van Alstyne,93.89,138.35,90.72,136.08,365.14,Single-ply,SBD,M,
Boys,99.79,26,Jeffery McKinney,Bells,97.25,142.88,79.38,142.88,365.14,Single-ply,SBD,M,
Boys,99.79,27,Xander Harmon,Van Alstyne,97.79,133.81,74.84,145.15,353.8,Single-ply,SBD,M,
Boys,99.79,28,Chauk Bailey,Whitewright,94.44,122.47,90.72,136.08,349.27,Single-ply,SBD,M,
Boys,99.79,29,Riordan Mazoney,Van Alstyne,96.34,136.08,83.91,129.27,349.27,Single-ply,SBD,M,
Boys,99.79,30,Cash Lankford,Wolfe City,95.12,124.74,90.72,120.2,335.66,Single-ply,SBD,M,
Boys,99.79,31,Mario Verde,Bells,99.61,92.99,56.7,115.67,265.35,Single-ply,SBD,M,
Boys,99.79,DQ,Bradley Parsons,Detroit,93.03,192.78,136.08,,,Single-ply,SBD,M,
Boys,99.79,DQ,James Eckrote,Prosper,95.39,183.7,,,,Single-ply,SBD,M,
Boys,99.79,DQ,Jake Miller,Cooper,90.72,142.88,106.59,92.99,,Single-ply,SBD,M,
Boys,109.77,1,Jacob Batson,Farmersville,109.23,272.16,145.15,258.55,675.85,Single-ply,SBD,M,
Boys,109.77,2,Kamron Rogers,Leonard,109.18,265.35,138.35,215.46,619.15,Single-ply,SBD,M,
Boys,109.77,3,Andrew Bailey,Princeton,103.96,226.8,142.88,247.21,616.89,Single-ply,SBD,M,
Boys,109.77,4,Radley Hamm,Whitewright,103.28,215.46,161.03,204.12,580.6,Single-ply,SBD,M,
Boys,109.77,5,Tito Chavez,Sherman,107.32,210.92,131.54,213.19,555.65,Single-ply,SBD,M,
Boys,109.77,6,Braedon Schneider,Gainesville,108.77,215.46,129.27,199.58,544.31,Single-ply,SBD,M,
Boys,109.77,7,Nash Gagliano,Prosper,105.05,210.92,120.2,181.44,512.56,Single-ply,SBD,M,
Boys,109.77,8,Isaac Copley,Krum,106.46,206.38,120.2,183.7,510.29,Single-ply,SBD,M,
Boys,109.77,9,Atibordin Sophonsakulrat,Prosper,109.54,195.04,113.4,195.04,503.49,Single-ply,SBD,M,
Boys,109.77,10,Blake Boren,Callisburg,101.47,176.9,122.47,176.9,476.27,Single-ply,SBD,M,
Boys,109.77,11,Zak Lilley,Prosper,105.28,170.1,122.47,165.56,458.13,Single-ply,SBD,M,
Boys,109.77,12,Luke Jackson,Howe,103.96,181.44,92.99,151.95,426.38,Single-ply,SBD,M,
Boys,109.77,13,Jasper Northcutt,Wolfe City,109.77,163.29,95.25,136.08,394.63,Single-ply,SBD,M,
Boys,109.77,14,Aaron Weeks,Bonham,107.68,138.35,74.84,140.61,353.8,Single-ply,SBD,M,
Boys,109.77,15,Davontea McGarity,Wolfe City,106.41,120.2,95.25,127.01,342.46,Single-ply,SBD,M,
Boys,109.77,16,Alex Ramirez,Dallas Life Oak Cliff,106.68,142.88,63.5,136.08,342.46,Single-ply,SBD,M,
Boys,109.77,17,Davonte McCleveland,Dallas Life Oak Cliff,107.32,133.81,61.23,131.54,326.59,Single-ply,SBD,M,
Boys,109.77,DQ,Jack Porter,Bonham,103.01,,,,,Single-ply,SBD,M,
Boys,109.77,DQ,Conner Murdock,Krum,104.46,,,,,Single-ply,SBD,M,
Boys,109.77,DQ,Blake Peters,Bells,107.91,,,,,Single-ply,SBD,M,
Boys,124.74,1,Jalan Henderson,Everman,124.65,260.82,165.56,249.48,675.85,Single-ply,SBD,M,
Boys,124.74,2,Seth Martin,Everman,121.79,233.6,117.93,249.48,601.01,Single-ply,SBD,M,
Boys,124.74,3,Adrian Anderson,Everman,117.21,240.4,154.22,204.12,598.74,Single-ply,SBD,M,
Boys,124.74,4,Jose Conejo,Denison,114.71,242.67,149.69,204.12,596.47,Single-ply,SBD,M,
Boys,124.74,5,Michael Reemts,Celina,114.58,251.74,127.01,201.85,580.6,Single-ply,SBD,M,
Boys,124.74,6,Benny Relford,Denison,115.12,226.8,122.47,206.38,555.65,Single-ply,SBD,M,
Boys,124.74,7,Jesse Coffey #2,Gainesville,121.7,219.99,142.88,183.7,546.58,Single-ply,SBD,M,
Boys,124.74,8,Dakota Herrington,Howe,118.02,215.46,113.4,188.24,517.1,Single-ply,SBD,M,
Boys,124.74,9,Colby Bacon,Lucas Lovejoy,112.26,192.78,131.54,190.51,514.83,Single-ply,SBD,M,
Boys,124.74,10,William Fleming,Howe,123.42,215.46,111.13,183.7,510.29,Single-ply,SBD,M,
Boys,124.74,11,Matt Billmeier,Sadler S & S Cons,114.31,190.51,142.88,167.83,501.22,Single-ply,SBD,M,
Boys,124.74,12,Canyon Cooksey,Wolfe City,112.63,195.04,108.86,185.97,489.88,Single-ply,SBD,M,
Boys,124.74,13,Tyler Johnson,Dallas Life Oak Cliff,109.95,183.7,127.01,161.03,471.74,Single-ply,SBD,M,
Boys,124.74,14,Grant Turner,Aubrey,113.26,179.17,106.59,185.97,471.74,Single-ply,SBD,M,
Boys,124.74,15,Julian Rodriguez,Princeton,111.54,179.17,108.86,161.03,449.06,Single-ply,SBD,M,
Boys,124.74,16,Isaac Bower,Valley View,120.84,183.7,104.33,142.88,430.91,Single-ply,SBD,M,
Boys,124.74,17,Xander Morganroth,Frisco Liberty,114.99,161.03,95.25,170.1,426.38,Single-ply,SBD,M,
Boys,124.74,18,Joshua Jordan,Aubrey,116.03,158.76,106.59,158.76,424.11,Single-ply,SBD,M,
Boys,124.74,19,Dakota Maleria,Farmersville,111.54,154.22,102.06,165.56,421.84,Single-ply,SBD,M,
Boys,124.74,20,Collin Mills,Leonard,116.53,154.22,120.2,147.42,421.84,Single-ply,SBD,M,
Boys,124.74,21,Max Figeuroa,Wolfe City,111.22,158.76,104.33,142.88,405.97,Single-ply,SBD,M,
Boys,124.74,22,Bradley Carrath,Bonham,110.9,140.61,83.91,136.08,360.61,Single-ply,SBD,M,
Boys,124.74,23,Bryce Byler,Pottsboro,111.04,122.47,83.91,142.88,349.27,Single-ply,SBD,M,
Boys,124.74,24,Gary Cook,Dallas Life Oak Cliff,112.81,102.06,61.23,174.63,337.93,Single-ply,SBD,M,
Boys,124.74,25,Caden Sinclair,Collinsville,111.18,102.06,88.45,104.33,294.84,Single-ply,SBD,M,
Boys,124.74,DQ,Bamian Stover,Prosper,121.83,,,,,Single-ply,SBD,M,
Boys,124.74,DQ,Jason Hayes,Sadler S & S Cons,117.98,142.88,102.06,,,Single-ply,SBD,M,
Boys,124.74+,1,Tyler Smith #2,Sherman,132.81,256.28,131.54,272.16,659.98,Single-ply,SBD,M,
Boys,124.74+,2,Johan DeLaRose,Gainesville,128,244.94,142.88,226.8,614.62,Single-ply,SBD,M,
Boys,124.74+,3,Drake Stephens #2,Bells,150.86,265.35,142.88,204.12,612.35,Single-ply,SBD,M,
Boys,124.74+,4,Brian Jobes,Lucas Lovejoy,137.62,235.87,170.1,204.12,610.08,Single-ply,SBD,M,
Boys,124.74+,5,Colton Mitchell,Denison,132.45,235.87,133.81,210.92,580.6,Single-ply,SBD,M,
Boys,124.74+,6,D'Marrya Searcy,Everman,154.49,233.6,165.56,181.44,580.6,Single-ply,SBD,M,
Boys,124.74+,7,David Johnson,Princeton,128.82,219.99,136.08,208.65,564.72,Single-ply,SBD,M,
Boys,124.74+,8,Gavin Emerson,Gainesville,136.17,226.8,142.88,190.51,560.19,Single-ply,SBD,M,
Boys,124.74+,9,Addison Crockett,Valley View,128.73,195.04,127.01,188.24,510.29,Single-ply,SBD,M,
Boys,124.74+,10,Elijah Ellis,Farmersville,166.79,183.7,124.74,195.04,503.49,Single-ply,SBD,M,
Boys,124.74+,11,Wade Graves,Whitesboro,134.94,142.88,138.35,176.9,458.13,Single-ply,SBD,M,
Boys,124.74+,12,Kenny Morris,Pottsboro,143.74,181.44,83.91,181.44,446.79,Single-ply,SBD,M,
Boys,124.74+,13,Ethan Moore #4,Valley View,145.83,176.9,83.91,176.9,437.72,Single-ply,SBD,M,
Boys,124.74+,14,Marc Anthony Gonzales,Whitewright,128.09,163.29,113.4,158.76,435.45,Single-ply,SBD,M,
Boys,124.74+,DQ,Gabe Janeson,Krum,129.64,154.22,120.2,156.49,,Single-ply,SBD,M,
